1, 0.845731, 0.713916, 0.865731, 0.733916
4, 0.818821, 0.070849, 0.838821, 0.090849
5, 0.873708, 0.606599, 0.893708, 0.626599
6, 0.942396, 0.212639, 0.962396, 0.232639
8, 0.602494, 0.445491, 0.622494, 0.465491
11, 0.939076, 0.466697, 0.959076, 0.486697
12, 0.768601, 0.049782, 0.788601, 0.069782
13, 0.730978, 0.011144, 0.750978, 0.031144
16, 0.276895, 0.226042, 0.296895, 0.246042
17, 0.577824, 0.575931, 0.597824, 0.595931
18, 0.176280, 0.095285, 0.196280, 0.115285
23, 0.709593, 0.031047, 0.729593, 0.051047
24, 0.782554, 0.338148, 0.802554, 0.358148
26, 0.928920, 0.793091, 0.948920, 0.813091
27, 0.725602, 0.285772, 0.745602, 0.305772
29, 0.639208, 0.441702, 0.659208, 0.461702
30, 0.700753, 0.400878, 0.720753, 0.420878
31, 0.201128, 0.077836, 0.221128, 0.097836
38, 0.819443, 0.339662, 0.839443, 0.359662
40, 0.464328, 0.191859, 0.484328, 0.211859
41, 0.921406, 0.061174, 0.941406, 0.081174
45, 0.939500, 0.403804, 0.959500, 0.423804
46, 0.357161, 0.239441, 0.377161, 0.259441
51, 0.444589, 0.241706, 0.464589, 0.261706
53, 0.765486, 0.176423, 0.785486, 0.196423
55, 0.782485, 0.046623, 0.802485, 0.066623
58, 0.960408, 0.554659, 0.980408, 0.574659
60, 0.200399, 0.108353, 0.220399, 0.128353
61, 0.919744, 0.309002, 0.939744, 0.329002
62, 0.815273, 0.286877, 0.835273, 0.306877
64, 0.077799, 0.050597, 0.097799, 0.070597
66, 0.950476, 0.850574, 0.970476, 0.870574
67, 0.946053, 0.762909, 0.966053, 0.782909
68, 0.468274, 0.139858, 0.488274, 0.159858
69, 0.910452, 0.115747, 0.930452, 0.135747
70, 0.916690, 0.460394, 0.936690, 0.480394
71, 0.903846, 0.650654, 0.923846, 0.670654
74, 0.874650, 0.077294, 0.894650, 0.097294
75, 0.461285, 0.302184, 0.481285, 0.322184
77, 0.201892, 0.178130, 0.221892, 0.198130
78, 0.947788, 0.507141, 0.967788, 0.527141
82, 0.397511, 0.093488, 0.417511, 0.113488
84, 0.646195, 0.027323, 0.666195, 0.047323
86, 0.606908, 0.302503, 0.626908, 0.322503
87, 0.912325, 0.742781, 0.932325, 0.762781
89, 0.921899, 0.376485, 0.941899, 0.396485
90, 0.940019, 0.416467, 0.960019, 0.436467
92, 0.478386, 0.068502, 0.498386, 0.088502
95, 0.971624, 0.640189, 0.991624, 0.660189
96, 0.503920, 0.020344, 0.523920, 0.040344
97, 0.117729, 0.086577, 0.137729, 0.106577
100, 0.416048, 0.026368, 0.436048, 0.046368
104, 0.367980, 0.071856, 0.387980, 0.091856
106, 0.295424, 0.212422, 0.315424, 0.232422
114, 0.336142, 0.153080, 0.356142, 0.173080
115, 0.840870, 0.261428, 0.860870, 0.281428
116, 0.922604, 0.551042, 0.942604, 0.571042
117, 0.649336, 0.044023, 0.669336, 0.064023
119, 0.671374, 0.104305, 0.691374, 0.124305
122, 0.744525, 0.181092, 0.764525, 0.201092
123, 0.700699, 0.551130, 0.720699, 0.571130
125, 0.133040, 0.007119, 0.153040, 0.027119
126, 0.569727, 0.367548, 0.589727, 0.387548
128, 0.540541, 0.482416, 0.560541, 0.502416
129, 0.208007, 0.178617, 0.228007, 0.198617
131, 0.966646, 0.806941, 0.986646, 0.826941
132, 0.668622, 0.458542, 0.688622, 0.478542
141, 0.405719, 0.203856, 0.425719, 0.223856
143, 0.821160, 0.807450, 0.841160, 0.827450
144, 0.779045, 0.466289, 0.799045, 0.486289
146, 0.720847, 0.590829, 0.740847, 0.610829
147, 0.864104, 0.549411, 0.884104, 0.569411
148, 0.804368, 0.300094, 0.824368, 0.320094
149, 0.636672, 0.082959, 0.656672, 0.102959
150, 0.942495, 0.389230, 0.962495, 0.409230
154, 0.894471, 0.303366, 0.914471, 0.323366
155, 0.504850, 0.313924, 0.524850, 0.333924
157, 0.881232, 0.512355, 0.901232, 0.532355
158, 0.874070, 0.448935, 0.894070, 0.468935
159, 0.776695, 0.348466, 0.796695, 0.368466
162, 0.603753, 0.360614, 0.623753, 0.380614
164, 0.749267, 0.367956, 0.769267, 0.387956
165, 0.877411, 0.203005, 0.897411, 0.223005
167, 0.887363, 0.335258, 0.907363, 0.355258
168, 0.465566, 0.008388, 0.485566, 0.028388
170, 0.782861, 0.525125, 0.802861, 0.545125
172, 0.935050, 0.264953, 0.955050, 0.284953
173, 0.822335, 0.776587, 0.842335, 0.796587
174, 0.517755, 0.231230, 0.537755, 0.251230
176, 0.812160, 0.419375, 0.832160, 0.439375
179, 0.626242, 0.245510, 0.646242, 0.265510
181, 0.962107, 0.320749, 0.982107, 0.340749
182, 0.540754, 0.425968, 0.560754, 0.445968
186, 0.863766, 0.206949, 0.883766, 0.226949
188, 0.883267, 0.113938, 0.903267, 0.133938
190, 0.752191, 0.540957, 0.772191, 0.560957
191, 0.494259, 0.023709, 0.514259, 0.043709
194, 0.677134, 0.584398, 0.697134, 0.604398
197, 0.684316, 0.127382, 0.704316, 0.147382
198, 0.735869, 0.590161, 0.755869, 0.610161
201, 0.544868, 0.239247, 0.564868, 0.259247
202, 0.793155, 0.169568, 0.813155, 0.189568
203, 0.861002, 0.126873, 0.881002, 0.146873
206, 0.828029, 0.537929, 0.848029, 0.557929
207, 0.187720, 0.035325, 0.207720, 0.055325
208, 0.574504, 0.039621, 0.594504, 0.059621
209, 0.616994, 0.143516, 0.636994, 0.163516
210, 0.937372, 0.188724, 0.957372, 0.208724
211, 0.952878, 0.172836, 0.972878, 0.192836
212, 0.695550, 0.594600, 0.715550, 0.614600
213, 0.941651, 0.517879, 0.961651, 0.537879
214, 0.800695, 0.347685, 0.820695, 0.367685
215, 0.927426, 0.456658, 0.947426, 0.476658
216, 0.774532, 0.301573, 0.794532, 0.321573
217, 0.940503, 0.095783, 0.960503, 0.115783
218, 0.785117, 0.101804, 0.805117, 0.121804
219, 0.602626, 0.420951, 0.622626, 0.440951
221, 0.630151, 0.399652, 0.650151, 0.419652
222, 0.590113, 0.136396, 0.610113, 0.156396
225, 0.108179, 0.073245, 0.128179, 0.093245
226, 0.884580, 0.251343, 0.904580, 0.271343
228, 0.512173, 0.465145, 0.532173, 0.485145
231, 0.273441, 0.064000, 0.293441, 0.084000
233, 0.571176, 0.177382, 0.591176, 0.197382
234, 0.589557, 0.217002, 0.609557, 0.237002
236, 0.883850, 0.668605, 0.903850, 0.688605
238, 0.263454, 0.129307, 0.283454, 0.149307
240, 0.718783, 0.132607, 0.738783, 0.152607
246, 0.817100, 0.034589, 0.837100, 0.054589
248, 0.728080, 0.341374, 0.748080, 0.361374
249, 0.978226, 0.027496, 0.998226, 0.047496
251, 0.644647, 0.459237, 0.664647, 0.479237
252, 0.227060, 0.051652, 0.247060, 0.071652
254, 0.489240, 0.315618, 0.509240, 0.335618
256, 0.927814, 0.103797, 0.947814, 0.123797
259, 0.623432, 0.493633, 0.643432, 0.513633
260, 0.858541, 0.790735, 0.878541, 0.810735
261, 0.862562, 0.138136, 0.882562, 0.158136
262, 0.261607, 0.138645, 0.281607, 0.158645
263, 0.502583, 0.343201, 0.522583, 0.363201
266, 0.942814, 0.419356, 0.962814, 0.439356
268, 0.645388, 0.389803, 0.665388, 0.409803
272, 0.537944, 0.031726, 0.557944, 0.051726
273, 0.772801, 0.299649, 0.792801, 0.319649
275, 0.646245, 0.241747, 0.666245, 0.261747
276, 0.410988, 0.226423, 0.430988, 0.246423
277, 0.447507, 0.048353, 0.467507, 0.068353
279, 0.648042, 0.377750, 0.668042, 0.397750
280, 0.957955, 0.425145, 0.977955, 0.445145
281, 0.861717, 0.372838, 0.881717, 0.392838
283, 0.814544, 0.657242, 0.834544, 0.677242
285, 0.563134, 0.198070, 0.583134, 0.218070
286, 0.207109, 0.006270, 0.227109, 0.026270
287, 0.280204, 0.245353, 0.300204, 0.265353
289, 0.597339, 0.402257, 0.617339, 0.422257
290, 0.343082, 0.221516, 0.363082, 0.241516
291, 0.943004, 0.203532, 0.963004, 0.223532
292, 0.705545, 0.234701, 0.725545, 0.254701
293, 0.845584, 0.772668, 0.865584, 0.792668
294, 0.845179, 0.285176, 0.865179, 0.305176
295, 0.459783, 0.046685, 0.479783, 0.066685
298, 0.878558, 0.443760, 0.898558, 0.463760
300, 0.944791, 0.768794, 0.964791, 0.788794
301, 0.645448, 0.412209, 0.665448, 0.432209
302, 0.633305, 0.196259, 0.653305, 0.216259
303, 0.936831, 0.716107, 0.956831, 0.736107
304, 0.365179, 0.358419, 0.385179, 0.378419
305, 0.923822, 0.249362, 0.943822, 0.269362
307, 0.953761, 0.127691, 0.973761, 0.147691
308, 0.159343, 0.119211, 0.179343, 0.139211
310, 0.289505, 0.192360, 0.309505, 0.212360
311, 0.821528, 0.193211, 0.841528, 0.213211
313, 0.418271, 0.014006, 0.438271, 0.034006
314, 0.379167, 0.107078, 0.399167, 0.127078
317, 0.219904, 0.159557, 0.239904, 0.179557
318, 0.516662, 0.445185, 0.536662, 0.465185
320, 0.815896, 0.216510, 0.835896, 0.236510
321, 0.332215, 0.157471, 0.352215, 0.177471
322, 0.320956, 0.241351, 0.340956, 0.261351
323, 0.429906, 0.099199, 0.449906, 0.119199
324, 0.789326, 0.109044, 0.809326, 0.129044
325, 0.638778, 0.010094, 0.658778, 0.030094
326, 0.962258, 0.780129, 0.982258, 0.800129
328, 0.576478, 0.240661, 0.596478, 0.260661
330, 0.417768, 0.379098, 0.437768, 0.399098
331, 0.766475, 0.097986, 0.786475, 0.117986
332, 0.257608, 0.122106, 0.277608, 0.142106
333, 0.515628, 0.081999, 0.535628, 0.101999
335, 0.398123, 0.386107, 0.418123, 0.406107
337, 0.879143, 0.090391, 0.899143, 0.110391
341, 0.519699, 0.006940, 0.539699, 0.026940
344, 0.548161, 0.103562, 0.568161, 0.123562
347, 0.903337, 0.412538, 0.923337, 0.432538
348, 0.915903, 0.462712, 0.935903, 0.482712
352, 0.825692, 0.272044, 0.845692, 0.292044
353, 0.352166, 0.316746, 0.372166, 0.336746
354, 0.388822, 0.230601, 0.408822, 0.250601
355, 0.363238, 0.049428, 0.383238, 0.069428
360, 0.691105, 0.065430, 0.711105, 0.085430
362, 0.735513, 0.419552, 0.755513, 0.439552
363, 0.831823, 0.002295, 0.851823, 0.022295
365, 0.859978, 0.541456, 0.879978, 0.561456
369, 0.919873, 0.215196, 0.939873, 0.235196
374, 0.886106, 0.014067, 0.906106, 0.034067
375, 0.175053, 0.074139, 0.195053, 0.094139
377, 0.613493, 0.179976, 0.633493, 0.199976
379, 0.837640, 0.182874, 0.857640, 0.202874
382, 0.978484, 0.541084, 0.998484, 0.561084
383, 0.896780, 0.254624, 0.916780, 0.274624
384, 0.852888, 0.735755, 0.872888, 0.755755
385, 0.592139, 0.309157, 0.612139, 0.329157
386, 0.932438, 0.384112, 0.952438, 0.404112
388, 0.649985, 0.414533, 0.669985, 0.434533
390, 0.733656, 0.530730, 0.753656, 0.550730
395, 0.212872, 0.005067, 0.232872, 0.025067
396, 0.545302, 0.324910, 0.565302, 0.344910
397, 0.639121, 0.208621, 0.659121, 0.228621
398, 0.840707, 0.267050, 0.860707, 0.287050
401, 0.910942, 0.300778, 0.930942, 0.320778
403, 0.284077, 0.260108, 0.304077, 0.280108
404, 0.891285, 0.022451, 0.911285, 0.042451
405, 0.829359, 0.696442, 0.849359, 0.716442
406, 0.935549, 0.543985, 0.955549, 0.563985
408, 0.533854, 0.076233, 0.553854, 0.096233
409, 0.896259, 0.320178, 0.916259, 0.340178
411, 0.223614, 0.220356, 0.243614, 0.240356
413, 0.525136, 0.086171, 0.545136, 0.106171
416, 0.326030, 0.314435, 0.346030, 0.334435
417, 0.463246, 0.135774, 0.483246, 0.155774
418, 0.847783, 0.525018, 0.867783, 0.545018
420, 0.434717, 0.161755, 0.454717, 0.181755
422, 0.904326, 0.109796, 0.924326, 0.129796
423, 0.221883, 0.214605, 0.241883, 0.234605
424, 0.769980, 0.013476, 0.789980, 0.033476
425, 0.810185, 0.069773, 0.830185, 0.089773
426, 0.548417, 0.349063, 0.568417, 0.369063
430, 0.501049, 0.303595, 0.521049, 0.323595
432, 0.947710, 0.814341, 0.967710, 0.834341
433, 0.508764, 0.246612, 0.528764, 0.266612
439, 0.899448, 0.642276, 0.919448, 0.662276
445, 0.954143, 0.365003, 0.974143, 0.385003
446, 0.274882, 0.199419, 0.294882, 0.219419
450, 0.312070, 0.139803, 0.332070, 0.159803
452, 0.744030, 0.702705, 0.764030, 0.722705
454, 0.606278, 0.374267, 0.626278, 0.394267
455, 0.805245, 0.757118, 0.825245, 0.777118
456, 0.333375, 0.125599, 0.353375, 0.145599
457, 0.823142, 0.057601, 0.843142, 0.077601
461, 0.526537, 0.231002, 0.546537, 0.251002
462, 0.296732, 0.231922, 0.316732, 0.251922
465, 0.695190, 0.197637, 0.715190, 0.217637
466, 0.212231, 0.008323, 0.232231, 0.028323
467, 0.568941, 0.012929, 0.588941, 0.032929
469, 0.782375, 0.362598, 0.802375, 0.382598
470, 0.845965, 0.338270, 0.865965, 0.358270
472, 0.429631, 0.349716, 0.449631, 0.369716
476, 0.708879, 0.679600, 0.728879, 0.699600
478, 0.845845, 0.815165, 0.865845, 0.835165
480, 0.768280, 0.642336, 0.788280, 0.662336
481, 0.293769, 0.240510, 0.313769, 0.260510
486, 0.389952, 0.201660, 0.409952, 0.221660
487, 0.908588, 0.553546, 0.928588, 0.573546
489, 0.872904, 0.555705, 0.892904, 0.575705
491, 0.947344, 0.741593, 0.967344, 0.761593
497, 0.324501, 0.201566, 0.344501, 0.221566
498, 0.731502, 0.034307, 0.751502, 0.054307
500, 0.685695, 0.622511, 0.705695, 0.642511
501, 0.314696, 0.066491, 0.334696, 0.086491
504, 0.906908, 0.514226, 0.926908, 0.534226
507, 0.543217, 0.481799, 0.563217, 0.501799
509, 0.112399, 0.088647, 0.132399, 0.108647
510, 0.040262, 0.033346, 0.060262, 0.053346
512, 0.476990, 0.001878, 0.496990, 0.021878
513, 0.536578, 0.273179, 0.556578, 0.293179
516, 0.604582, 0.222889, 0.624582, 0.242889
525, 0.819530, 0.758623, 0.839530, 0.778623
529, 0.318989, 0.103654, 0.338989, 0.123654
531, 0.603682, 0.260006, 0.623682, 0.280006
532, 0.934168, 0.740873, 0.954168, 0.760873
533, 0.617571, 0.354994, 0.637571, 0.374994
534, 0.669242, 0.262778, 0.689242, 0.282778
538, 0.901348, 0.071228, 0.921348, 0.091228
539, 0.827734, 0.450584, 0.847734, 0.470584
540, 0.605163, 0.255342, 0.625163, 0.275342
544, 0.372449, 0.270636, 0.392449, 0.290636
548, 0.422864, 0.102259, 0.442864, 0.122259
549, 0.724121, 0.304383, 0.744121, 0.324383
550, 0.929906, 0.339406, 0.949906, 0.359406
551, 0.452588, 0.334613, 0.472588, 0.354613
552, 0.312127, 0.160551, 0.332127, 0.180551
553, 0.841561, 0.822070, 0.861561, 0.842070
554, 0.406462, 0.252755, 0.426462, 0.272755
555, 0.602269, 0.503659, 0.622269, 0.523659
556, 0.168538, 0.064754, 0.188538, 0.084754
558, 0.923096, 0.043358, 0.943096, 0.063358
559, 0.398075, 0.089933, 0.418075, 0.109933
560, 0.782964, 0.270355, 0.802964, 0.290355
563, 0.351877, 0.174778, 0.371877, 0.194778
564, 0.765292, 0.120115, 0.785292, 0.140115
567, 0.472912, 0.373666, 0.492912, 0.393666
573, 0.582792, 0.503736, 0.602792, 0.523736
574, 0.543918, 0.064561, 0.563918, 0.084561
579, 0.508135, 0.162002, 0.528135, 0.182002
580, 0.835675, 0.403421, 0.855675, 0.423421
582, 0.275468, 0.110911, 0.295468, 0.130911
585, 0.497128, 0.425264, 0.517128, 0.445264
588, 0.397971, 0.004083, 0.417971, 0.024083
591, 0.570472, 0.558725, 0.590472, 0.578725
592, 0.135531, 0.086407, 0.155531, 0.106407
593, 0.729791, 0.015136, 0.749791, 0.035136
594, 0.895573, 0.295215, 0.915573, 0.315215
595, 0.524472, 0.454319, 0.544472, 0.474319
596, 0.945898, 0.026620, 0.965898, 0.046620
599, 0.741896, 0.021238, 0.761896, 0.041238
602, 0.743982, 0.247357, 0.763982, 0.267357
606, 0.688203, 0.117062, 0.708203, 0.137062
609, 0.855493, 0.639377, 0.875493, 0.659377
611, 0.921145, 0.736904, 0.941145, 0.756904
613, 0.828789, 0.514025, 0.848789, 0.534025
614, 0.875235, 0.324542, 0.895235, 0.344542
615, 0.900826, 0.844335, 0.920826, 0.864335
617, 0.895496, 0.848628, 0.915496, 0.868628
618, 0.849087, 0.305312, 0.869087, 0.325312
622, 0.581640, 0.391489, 0.601640, 0.411489
623, 0.945522, 0.846475, 0.965522, 0.866475
627, 0.500105, 0.026575, 0.520105, 0.046575
629, 0.331992, 0.244049, 0.351992, 0.264049
630, 0.355540, 0.202374, 0.375540, 0.222374
632, 0.481548, 0.071445, 0.501548, 0.091445
634, 0.815746, 0.797505, 0.835746, 0.817505
635, 0.454956, 0.070781, 0.474956, 0.090781
636, 0.478117, 0.202603, 0.498117, 0.222603
638, 0.464510, 0.329615, 0.484510, 0.349615
639, 0.789568, 0.447470, 0.809568, 0.467470
642, 0.303280, 0.295738, 0.323280, 0.315738
644, 0.347888, 0.067080, 0.367888, 0.087080
646, 0.697871, 0.607706, 0.717871, 0.627706
648, 0.879908, 0.552498, 0.899908, 0.572498
649, 0.137715, 0.103550, 0.157715, 0.123550
650, 0.639190, 0.622369, 0.659190, 0.642369
652, 0.952524, 0.275887, 0.972524, 0.295887
656, 0.880524, 0.765919, 0.900524, 0.785919
658, 0.680234, 0.342530, 0.700234, 0.362530
660, 0.398171, 0.153555, 0.418171, 0.173555
661, 0.908047, 0.748022, 0.928047, 0.768022
663, 0.685713, 0.232533, 0.705713, 0.252533
664, 0.964809, 0.197906, 0.984809, 0.217906
667, 0.869421, 0.840455, 0.889421, 0.860455
668, 0.775201, 0.005473, 0.795201, 0.025473
669, 0.846652, 0.026203, 0.866652, 0.046203
674, 0.860462, 0.400505, 0.880462, 0.420505
677, 0.876039, 0.170233, 0.896039, 0.190233
678, 0.849660, 0.640916, 0.869660, 0.660916
681, 0.711323, 0.211094, 0.731323, 0.231094
683, 0.267418, 0.209911, 0.287418, 0.229911
686, 0.787659, 0.418419, 0.807659, 0.438419
687, 0.187455, 0.172137, 0.207455, 0.192137
689, 0.269870, 0.176245, 0.289870, 0.196245
691, 0.817653, 0.184501, 0.837653, 0.204501
694, 0.965802, 0.955065, 0.985802, 0.975065
695, 0.920214, 0.646214, 0.940214, 0.666214
696, 0.739013, 0.212145, 0.759013, 0.232145
698, 0.629250, 0.506973, 0.649250, 0.526973
701, 0.589659, 0.053017, 0.609659, 0.073017
702, 0.718462, 0.565478, 0.738462, 0.585478
703, 0.332248, 0.044905, 0.352248, 0.064905
704, 0.540915, 0.275594, 0.560915, 0.295594
705, 0.454729, 0.125903, 0.474729, 0.145903
706, 0.102078, 0.051539, 0.122078, 0.071539
707, 0.976215, 0.244471, 0.996215, 0.264471
709, 0.455941, 0.100109, 0.475941, 0.120109
711, 0.677332, 0.108775, 0.697332, 0.128775
714, 0.894018, 0.407537, 0.914018, 0.427537
715, 0.919976, 0.350618, 0.939976, 0.370618
717, 0.928166, 0.298206, 0.948166, 0.318206
718, 0.662305, 0.070604, 0.682305, 0.090604
719, 0.716921, 0.110438, 0.736921, 0.130438
721, 0.808561, 0.422126, 0.828561, 0.442126
722, 0.957785, 0.736748, 0.977785, 0.756748
725, 0.664863, 0.122499, 0.684863, 0.142499
726, 0.790052, 0.605286, 0.810052, 0.625286
732, 0.374783, 0.249610, 0.394783, 0.269610
735, 0.691291, 0.003618, 0.711291, 0.023618
736, 0.363607, 0.337575, 0.383607, 0.357575
737, 0.475558, 0.316212, 0.495558, 0.336212
739, 0.901733, 0.662604, 0.921733, 0.682604
742, 0.936983, 0.015170, 0.956983, 0.035170
744, 0.976290, 0.970165, 0.996290, 0.990165
747, 0.909672, 0.687063, 0.929672, 0.707063
748, 0.527612, 0.107434, 0.547612, 0.127434
749, 0.489642, 0.013987, 0.509642, 0.033987
750, 0.608463, 0.149205, 0.628463, 0.169205
754, 0.513443, 0.485122, 0.533443, 0.505122
757, 0.643423, 0.156214, 0.663423, 0.176214
759, 0.807762, 0.744525, 0.827762, 0.764525
761, 0.719180, 0.149116, 0.739180, 0.169116
762, 0.877753, 0.298670, 0.897753, 0.318670
764, 0.560527, 0.331181, 0.580527, 0.351181
765, 0.788526, 0.121029, 0.808526, 0.141029
766, 0.754530, 0.340837, 0.774530, 0.360837
768, 0.725260, 0.187550, 0.745260, 0.207550
771, 0.943544, 0.593748, 0.963544, 0.613748
772, 0.787674, 0.321112, 0.807674, 0.341112
773, 0.918202, 0.829345, 0.938202, 0.849345
774, 0.514805, 0.231367, 0.534805, 0.251367
776, 0.822095, 0.469085, 0.842095, 0.489085
778, 0.297343, 0.162588, 0.317343, 0.182588
781, 0.686514, 0.623501, 0.706514, 0.643501
784, 0.917283, 0.792482, 0.937283, 0.812482
785, 0.546259, 0.046860, 0.566259, 0.066860
786, 0.813568, 0.435670, 0.833568, 0.455670
794, 0.634614, 0.338123, 0.654614, 0.358123
795, 0.534008, 0.323020, 0.554008, 0.343020
796, 0.932056, 0.078603, 0.952056, 0.098603
797, 0.823504, 0.089321, 0.843504, 0.109321
799, 0.881641, 0.875831, 0.901641, 0.895831
800, 0.727821, 0.106078, 0.747821, 0.126078
