version,real,user,sys
0.8.6,1.001875,0.98875,0.00875
0.8.7,0.608125,0.583125,0.021875
1.0.0,0.57125,0.56,0.006875
1.0.5,0.545625,0.53375,0.006875
1.0.6,0.548125,0.53625,0.008125
1.0.7,0.579375,0.546875,0.008125
1.0.8,0.548125,0.535,0.00875
1.0.9,0.551875,0.540625,0.005
1.1.0,0.549375,0.540625,0.005
1.1.1,0.54,0.526875,0.008125
1.1.2,0.566875,0.54875,0.009375
1.2.0,0.6075,0.59125,0.01125
