real, user, sys
0.56, 0.55, 0.00
0.55, 0.53, 0.01
0.60, 0.58, 0.01
0.56, 0.54, 0.02
0.56, 0.54, 0.01
0.55, 0.54, 0.00
0.57, 0.56, 0.01
0.55, 0.54, 0.00
0.60, 0.57, 0.02
0.58, 0.56, 0.01
0.57, 0.54, 0.02
0.58, 0.55, 0.01
0.57, 0.55, 0.01
0.57, 0.56, 0.01
0.55, 0.54, 0.00
0.55, 0.53, 0.01
